--------------------------------------------------

The Sims 4 CC converted to GTA V

--------------------------------------------------

Join our discord: https://discord.gg/phztmDbca9
Watch live: https://www.twitch.tv/fadootv

--------------------------------------------------

SINGLE PLAYER:
- Open OpenIV
- Enable "Edit mode"
- Drag and drop files here:\Grand Theft Auto V\x64v.rpf\models\cdimages\streamedpeds_mp.rpf\mp_f_freemode_01_mp_f_gunrunning_hair_01

FIVEM:
Drop files from [FIVEM] to youre clothes 'stream' folder it'll replace the cloth in the base game.
If you don't know how to install clothes to FiveM as ADDON? 
Watch: https://www.youtube.com/watch?v=p0AJ12-WW4g


--------------------------------------------------

Credits go to: WINGS
Edited by: Women's Mods

--------------------------------------------------

ITS 1.1 UPDATE !!! <3
Its just better movement <3

Update 1.2
Optimization 

--------------------------------------------------